{
  "realm": "AlumniNetworkRealm",
  "auth-server-url": "https://keycloakalumni.herokuapp.com/auth/",
  "ssl-required": "external",
  "resource": "alumni-network",
  "public-client": true,
  "verify-token-audience": true,
  "use-resource-role-mappings": true,
  "confidential-port": 0
}